{
    "transform": {
      "^.+\\.(t|j)sx?$": "ts-jest"
    },
    "testRegex": "(/tests/.*|(\\.|/)(test|spec))\\.(jsx?|tsx?)$",
    "moduleFileExtensions": ["ts", "tsx", "js", "jsx", "json", "node"],
    "testTimeout" : 1000000

  }

 